[
    {
        "model": "pages.page",
        "pk": 1,
        "fields": {
            "title": "Marketing and Sponsorship",
            "subtitle": "Marketing Opportunity",
            "enable": true,
            "content": "<p>
                </p><p><span style=\"font-family: arial, helvetica, sans-serif; font-size: small;\"><strong>The Baseball Legends Philosophy</strong></span></p>
                <p><span style=\"font-family: arial, helvetica, sans-serif; font-size: small;\">&nbsp;</span></p>
                <p><span style=\"font-family: arial, helvetica, sans-serif; font-size: small;\">The Baseball Legends is an organization committed to providing world-class competitive tournaments, showcases, camps and clinics ran by high profile former Major League Baseball players.&nbsp; The Baseball Legends is built around educating and supporting the growth of youth athletes world-wide.&nbsp;</span></p>
                <p><span style=\"font-family: arial, helvetica, sans-serif; font-size: small;\">&nbsp;</span></p>
                <p><span style=\"font-family: arial, helvetica, sans-serif; font-size: small;\"><strong>The Baseball Legends Partnership</strong></span></p>
                <p><span style=\"font-family: arial, helvetica, sans-serif; font-size: small;\">&nbsp;</span></p>
                <p><span style=\"font-family: arial, helvetica, sans-serif; font-size: small;\">As part of our strategic partnership, The Baseball Legends are committed to providing you with exceptional Community Outreach and Promotional Opportunities. Our brand extension campaigns, fully integrated marketing plans and one-of-a-kind experiences are designed to meet and exceed your business goals. A Partnership with us is different than most sports sponsorships. Our Partners receive all the traditional benefits associated with sports properties coupled with unique opportunity to help make our events affordable for the youth athlete.</span></p>
                <p><span style=\"font-family: arial, helvetica, sans-serif; font-size: small;\">&nbsp;</span></p>
                <p><span style=\"font-family: arial, helvetica, sans-serif; font-size: small;\"><strong>Here is what we can help you accomplish:</strong></span></p>
                <p><span style=\"font-family: arial, helvetica, sans-serif; font-size: small;\">&nbsp;</span></p>
                <ul>
                <li><span style=\"font-family: arial, helvetica, sans-serif; font-size: small;\">Reach out &nbsp;to new customers and generate new business</span></li>
                <li><span style=\"font-family: arial, helvetica, sans-serif; font-size: small;\">Retain brand loyalty with top-of-mind awareness</span></li>
                <li><span style=\"font-family: arial, helvetica, sans-serif; font-size: small;\">Stay ahead of your competitors</span></li>
                <li><span style=\"font-family: arial, helvetica, sans-serif; font-size: small;\">Increase sales</span></li>
                <li><span style=\"font-family: arial, helvetica, sans-serif; font-size: small;\">Generate store traffic</span></li>
                <li><span style=\"font-family: arial, helvetica, sans-serif; font-size: small;\">Display positive images for your business</span></li>
                <li><span style=\"font-family: arial, helvetica, sans-serif; font-size: small;\">Design and distribution of co-branded merchandise and promotional items</span></li>
                <li><span style=\"font-family: arial, helvetica, sans-serif; font-size: small;\">Website cross promotions and shared link capabilities</span></li>
                <li><span style=\"font-family: arial, helvetica, sans-serif; font-size: small;\">Logo on approved TBL collateral materials</span></li>
                <li><span style=\"font-family: arial, helvetica, sans-serif; font-size: small;\">Special appearances by high profile former MLB players and mascot</span></li>
                </ul>
                <p><span style=\"font-family: arial, helvetica, sans-serif; font-size: small;\">&nbsp;</span></p>
                <p><span style=\"font-family: arial, helvetica, sans-serif; font-size: small;\">&nbsp;</span></p>
                <p><span style=\"font-family: arial, helvetica, sans-serif; font-size: small;\"><strong>Just a small sampling of the innumerable ways your brand and your message can be communicated through The Baseball Legends:</strong></span></p>
                <ul>
                <li><span style=\"font-family: arial, helvetica, sans-serif; font-size: small;\">Presenting Sponsor</span></li>
                <li><span style=\"font-family: arial, helvetica, sans-serif; font-size: small;\">International Showcase Sponsor</span></li>
                <li><span style=\"font-family: arial, helvetica, sans-serif; font-size: small;\">International College &amp; Free Agent Showcase Sponsor</span></li>
                <li><span style=\"font-family: arial, helvetica, sans-serif; font-size: small;\">Home Run Derby Sponsor</span></li>
                <li><span style=\"font-family: arial, helvetica, sans-serif; font-size: small;\">Pitch Speed Sponsor</span></li>
                <li><span style=\"font-family: arial, helvetica, sans-serif; font-size: small;\">Website ad</span></li>
                <li><span style=\"font-family: arial, helvetica, sans-serif; font-size: small;\">Newsletter sponsorship</span></li>
                <li><span style=\"font-family: arial, helvetica, sans-serif; font-size: small;\">Signage&nbsp;</span></li>
                <li><span style=\"font-family: arial, helvetica, sans-serif; font-size: small;\">Game Program ad</span></li>
                <li><span style=\"font-family: arial, helvetica, sans-serif; font-size: small;\">Baseball Camp and Clinic Sponsor</span></li>
                <li><span style=\"font-family: arial, helvetica, sans-serif; font-size: small;\">Food Vendor</span></li>
                <li><span style=\"font-family: arial, helvetica, sans-serif; font-size: small;\">Admission Ticket Back Sponsor</span></li>
                </ul>
                <p><span style=\"font-family: arial, helvetica, sans-serif; font-size: small;\">&nbsp;</span></p>
                <p><span style=\"font-family: arial, helvetica, sans-serif; font-size: small;\">For more information about partnership opportunities contact Marketing</span></p>
                <p><span style=\"font-family: arial, helvetica, sans-serif; font-size: small;\">Kundy Gutierrez &nbsp;(760) 230-5952 ext 101 or email <a href=\"mailto:kund@thebaseballlegends.com\">kundy@thebaseballlegends.com</a></span><a style=\"font-family: arial, helvetica, sans-serif; font-size: small;\" href=\"mailto:leanna@thebaseballlegends.com\"><br></a></p>
                <p>&nbsp;</p>
                <p><span style=\"font-family: arial, helvetica, sans-serif; font-size: small;\">&nbsp; &nbsp;&nbsp;</span></p>
                <p></p>"

        }
    }

]
